…
Preliminarily viewing dataset, the first few rows, last few rows, summary statistics which provide a general overview of whether there is missing column names, data etc.

``` r
nyc_subway_data
```

    ## # A tibble: 1,868 x 32
    ##    division line  station_name station_latitude station_longitu~ route1
    ##    <chr>    <chr> <chr>                   <dbl>            <dbl> <chr> 
    ##  1 BMT      4 Av~ 25th St                  40.7            -74.0 R     
    ##  2 BMT      4 Av~ 25th St                  40.7            -74.0 R     
    ##  3 BMT      4 Av~ 36th St                  40.7            -74.0 N     
    ##  4 BMT      4 Av~ 36th St                  40.7            -74.0 N     
    ##  5 BMT      4 Av~ 36th St                  40.7            -74.0 N     
    ##  6 BMT      4 Av~ 45th St                  40.6            -74.0 R     
    ##  7 BMT      4 Av~ 45th St                  40.6            -74.0 R     
    ##  8 BMT      4 Av~ 45th St                  40.6            -74.0 R     
    ##  9 BMT      4 Av~ 45th St                  40.6            -74.0 R     
    ## 10 BMT      4 Av~ 53rd St                  40.6            -74.0 R     
    ## # ... with 1,858 more rows, and 26 more variables: route2 <chr>,
    ## #   route3 <chr>, route4 <chr>, route5 <chr>, route6 <chr>, route7 <chr>,
    ## #   route8 <int>, route9 <int>, route10 <int>, route11 <int>,
    ## #   entrance_type <chr>, entry <chr>, exit_only <chr>, vending <chr>,
    ## #   staffing <chr>, staff_hours <chr>, ada <lgl>, ada_notes <chr>,
    ## #   free_crossover <lgl>, north_south_street <chr>,
    ## #   east_west_street <chr>, corner <chr>, entrance_latitude <dbl>,
    ## #   entrance_longitude <dbl>, station_location <chr>,
    ## #   entrance_location <chr>
…
It seems that dataset appears to have all necessary column names, so moving onto the next step of selecting certain columns.

``` r
select(nyc_subway_data, line, station_name, station_latitude, station_longitude, route1:route11, entry, vending, entrance_type, ada)
```

    ## # A tibble: 1,868 x 19
    ##    line  station_name station_latitude station_longitu~ route1 route2
    ##    <chr> <chr>                   <dbl>            <dbl> <chr>  <chr> 
    ##  1 4 Av~ 25th St                  40.7            -74.0 R      <NA>  
    ##  2 4 Av~ 25th St                  40.7            -74.0 R      <NA>  
    ##  3 4 Av~ 36th St                  40.7            -74.0 N      R     
    ##  4 4 Av~ 36th St                  40.7            -74.0 N      R     
    ##  5 4 Av~ 36th St                  40.7            -74.0 N      R     
    ##  6 4 Av~ 45th St                  40.6            -74.0 R      <NA>  
    ##  7 4 Av~ 45th St                  40.6            -74.0 R      <NA>  
    ##  8 4 Av~ 45th St                  40.6            -74.0 R      <NA>  
    ##  9 4 Av~ 45th St                  40.6            -74.0 R      <NA>  
    ## 10 4 Av~ 53rd St                  40.6            -74.0 R      <NA>  
    ## # ... with 1,858 more rows, and 13 more variables: route3 <chr>,
    ## #   route4 <chr>, route5 <chr>, route6 <chr>, route7 <chr>, route8 <int>,
    ## #   route9 <int>, route10 <int>, route11 <int>, entry <chr>,
    ## #   vending <chr>, entrance_type <chr>, ada <lgl>
…
``` r
nyc_subway_data = mutate(nyc_subway_data, entry = ifelse(entry == "YES", "True", "False"))
```

The dataset nyc\_subway\_data contains variables that describe the subway lines available in New York City, via whether the line was BMT/IND operated and its line catagorization, where its stations are located via latitude/longitude, street location, availability of entry and exit, ada compliant, availability of vending and staffing, and the names of the stations. My cleanupu steps involved cleaning the column names to lower snake case, ensuring that there were no column names missing, as well as a brief overview of the data. I selected certain columns to work with and recoded the variable "entry".

The definition of tidy data involve column names being variables themselves, rows are observations and every value has its own cell. No, the data is not yet tidy, as each route number value has its own column. In order to make this data tidy, two columns should be made, one column for variable "route\_number" and one column for a corresponding "route\_train" for the trains that serve each route.

To determine how many distinct stations there are, as defined by unique combinations of station name and line, use the distinct function.

``` r
distinct(nyc_subway_data, station_name, line)
```

    ## # A tibble: 465 x 2
    ##    line     station_name            
    ##    <chr>    <chr>                   
    ##  1 4 Avenue 25th St                 
    ##  2 4 Avenue 36th St                 
    ##  3 4 Avenue 45th St                 
    ##  4 4 Avenue 53rd St                 
    ##  5 4 Avenue 59th St                 
    ##  6 4 Avenue 77th St                 
    ##  7 4 Avenue 86th St                 
    ##  8 4 Avenue 95th St                 
    ##  9 4 Avenue 9th St                  
    ## 10 4 Avenue Atlantic Av-Barclays Ctr
    ## # ... with 455 more rows

Filtering by line and station name, there are 465 distinct stations.

``` r
filter(nyc_subway_data, ada == "TRUE") %>%
  distinct(.data = ., station_name, line)
```

    ## # A tibble: 84 x 2
    ##    line            station_name                  
    ##    <chr>           <chr>                         
    ##  1 4 Avenue        Atlantic Av-Barclays Ctr      
    ##  2 4 Avenue        DeKalb Av                     
    ##  3 4 Avenue        Pacific St                    
    ##  4 42nd St Shuttle Grand Central                 
    ##  5 6 Avenue        34th St                       
    ##  6 6 Avenue        47-50th Sts Rockefeller Center
    ##  7 6 Avenue        Church Av                     
    ##  8 63rd Street     21st St                       
    ##  9 63rd Street     Lexington Av                  
    ## 10 63rd Street     Roosevelt Island              
    ## # ... with 74 more rows
…
69 stations do not have vending and allow entrance. Thus 69/183 stations without vending allow entrance, 0.3770492.

``` r
tidy_nyc_subway_data = gather(nyc_subway_data, key = route_number, value = route_name, route1:route11)
```

Using gather route variables have been combined into route\_number and route\_name.

``` r
filter(tidy_nyc_subway_data, route_name == "A") %>% distinct(.data = ., station_name, line)
```

    ## # A tibble: 60 x 2
    ##    line            station_name                 
    ##    <chr>           <chr>                        
    ##  1 42nd St Shuttle Times Square                 
    ##  2 8 Avenue        125th St                     
    ##  3 8 Avenue        145th St                     
    ##  4 8 Avenue        14th St                      
    ##  5 8 Avenue        168th St - Washington Heights
    ##  6 8 Avenue        175th St                     
    ##  7 8 Avenue        181st St                     
    ##  8 8 Avenue        190th St                     
    ##  9 8 Avenue        34th St                      
    ## 10 8 Avenue        42nd St                      
    ## # ... with 50 more rows
…
